C:\Users\Daniel\Documents\NetBeansProjects\soccerpocket\src\main\java\com\daniel\soccerpocketws\app\ws\exception\NoRecordFoundExceptionMapper.java
C:\Users\Daniel\Documents\NetBeansProjects\soccerpocket\src\main\java\com\daniel\soccerpocketws\app\ws\service\implementation\AuthenticationServiceImplementation.java
C:\Users\Daniel\Documents\NetBeansProjects\soccerpocket\src\main\java\com\daniel\soccerpocketws\app\ws\exception\MissingRequiredFieldExceptionMapper.java
C:\Users\Daniel\Documents\NetBeansProjects\soccerpocket\src\main\java\com\daniel\soccerpocketws\app\ws\exception\CouldNotCreateRecordException.java
C:\Users\Daniel\Documents\NetBeansProjects\soccerpocket\src\main\java\com\daniel\soccerpocketws\app\ws\exception\NoRecordFoundException.java
C:\Users\Daniel\Documents\NetBeansProjects\soccerpocket\src\main\java\com\daniel\soccerpocketws\app\ws\ui\model\response\ErrorMessages.java
C:\Users\Daniel\Documents\NetBeansProjects\soccerpocket\src\main\java\com\daniel\soccerpocketws\app\ws\ui\model\response\DeleteUserProfileResponseModel.java
C:\Users\Daniel\Documents\NetBeansProjects\soccerpocket\src\main\java\com\daniel\soccerpocketws\app\ws\ui\entrypoint\AuthenticationEntryPoint.java
C:\Users\Daniel\Documents\NetBeansProjects\soccerpocket\src\main\java\com\daniel\soccerpocketws\app\ws\exception\MissingRequiredFieldException.java
C:\Users\Daniel\Documents\NetBeansProjects\soccerpocket\src\main\java\com\daniel\soccerpocketws\app\ws\service\AuthenticationService.java
C:\Users\Daniel\Documents\NetBeansProjects\soccerpocket\src\main\java\com\daniel\soccerpocketws\app\ws\exception\AuthenticationExceptionMapper.java
C:\Users\Daniel\Documents\NetBeansProjects\soccerpocket\src\main\java\com\daniel\soccerpocketws\app\ws\utils\UserProfileUtils.java
C:\Users\Daniel\Documents\NetBeansProjects\soccerpocket\src\main\java\com\daniel\soccerpocketws\app\ws\utils\HibernateUtils.java
C:\Users\Daniel\Documents\NetBeansProjects\soccerpocket\src\main\java\com\daniel\soccerpocketws\app\ws\ui\model\CreateUserRequestModel.java
C:\Users\Daniel\Documents\NetBeansProjects\soccerpocket\src\main\java\com\daniel\soccerpocketws\app\ws\ui\model\response\ErrorMessage.java
C:\Users\Daniel\Documents\NetBeansProjects\soccerpocket\src\main\java\com\daniel\soccerpocketws\app\ws\io\dao\implementation\MySQLDAO.java
C:\Users\Daniel\Documents\NetBeansProjects\soccerpocket\src\main\java\com\daniel\soccerpocketws\app\ws\exception\GenericExceptionMapper.java
C:\Users\Daniel\Documents\NetBeansProjects\soccerpocket\src\main\java\com\daniel\soccerpocketws\app\ws\ui\model\request\UpdateUserRequestModel.java
C:\Users\Daniel\Documents\NetBeansProjects\soccerpocket\src\main\java\com\daniel\soccerpocketws\app\ws\ui\model\response\AuthenticationDetails.java
C:\Users\Daniel\Documents\NetBeansProjects\soccerpocket\src\main\java\com\daniel\soccerpocketws\app\ws\exception\AuthenticationException.java
C:\Users\Daniel\Documents\NetBeansProjects\soccerpocket\src\main\java\com\daniel\soccerpocketws\app\ws\io\entity\User.java
C:\Users\Daniel\Documents\NetBeansProjects\soccerpocket\src\main\java\com\daniel\soccerpocketws\app\ws\ui\entrypoint\UsersEntryPoint.java
C:\Users\Daniel\Documents\NetBeansProjects\soccerpocket\src\main\java\com\daniel\soccerpocketws\app\ws\ui\model\response\UserProfileRest.java
C:\Users\Daniel\Documents\NetBeansProjects\soccerpocket\src\main\java\com\daniel\soccerpocketws\app\ws\ui\model\request\LoginCredentials.java
C:\Users\Daniel\Documents\NetBeansProjects\soccerpocket\src\main\java\com\daniel\soccerpocketws\app\ws\ui\model\response\RequestOperation.java
C:\Users\Daniel\Documents\NetBeansProjects\soccerpocket\src\main\java\com\daniel\soccerpocketws\app\ws\io\dao\DAO.java
C:\Users\Daniel\Documents\NetBeansProjects\soccerpocket\src\main\java\com\daniel\soccerpocketws\app\ws\service\UserService.java
C:\Users\Daniel\Documents\NetBeansProjects\soccerpocket\src\main\java\com\daniel\soccerpocketws\app\ws\App.java
C:\Users\Daniel\Documents\NetBeansProjects\soccerpocket\src\main\java\com\daniel\soccerpocketws\app\ws\service\implementation\UsersServiceImplementation.java
C:\Users\Daniel\Documents\NetBeansProjects\soccerpocket\src\main\java\com\daniel\soccerpocketws\app\ws\exception\CouldNotCreateRecordExceptionMapper.java
C:\Users\Daniel\Documents\NetBeansProjects\soccerpocket\src\main\java\com\daniel\soccerpocketws\app\ws\shared\dto\UserDTO.java
